{
  "project_info": {
    "project_number": "1078292376331",
    "firebase_url": "https://iot-test-a8f13.firebaseio.com",
    "project_id": "iot-test-a8f13",
    "storage_bucket": "iot-test-a8f13.appspot.com"
  },
  "client": [
    {
      "client_info": {
        "mobilesdk_app_id": "1:1078292376331:android:4a70589ce9f08499",
        "android_client_info": {
          "package_name": "com.fablab.balancechecker"
        }
      },
      "oauth_client": [
        {
          "client_id": "1078292376331-sk0pns2hlko60j1jg04vie7ba29hng96.apps.googleusercontent.com",
          "client_type": 3
        }
      ],
      "api_key": [
        {
          "current_key": "AIzaSyB08rzBu1_iMyAcLqGpt9GpXZdbBPIRf3U"
        }
      ],
      "services": {
        "appinvite_service": {
          "other_platform_oauth_client": [
            {
              "client_id": "1078292376331-sk0pns2hlko60j1jg04vie7ba29hng96.apps.googleusercontent.com",
              "client_type": 3
            }
          ]
        }
      }
    }
  ],
  "configuration_version": "1"
}